modfile generated in Python
11 0
1 1 ERT.dcp
2 1 ERT.dcp
3 1 ERT.dcp
4 1 ERT.dcp
5 1 ERT.dcp
6 1 ERT.dcp
7 1 ERT.dcp
8 1 ERT.dcp
9 1 ERT.dcp
10 1 ERT.dcp
11 1 ERT.dcp
0
20
1280.6887225491876 -1 9e9 9e9
1280.6887225491876 -1 9e9 9e9
1280.6887225491876 -1 9e9 9e9
1280.6887225491876 -1 9e9 9e9
265.7952665472593 -1 9e9 9e9
265.7952665472593 -1 9e9 9e9
265.7952665472593 -1 9e9 9e9
265.7952665472593 -1 9e9 9e9
265.7952665472593 -1 9e9 9e9
265.7952665472593 -1 9e9 9e9
265.7952665472593 -1 9e9 9e9
265.7952665472593 -1 9e9 9e9
265.7952665472593 -1 9e9 9e9
265.7952665472593 -1 9e9 9e9
265.7952665472593 -1 9e9 9e9
265.7952665472593 -1 9e9 9e9
265.7952665472593 -1 9e9 9e9
265.7952665472593 -1 9e9 9e9
265.7952665472593 -1 9e9 9e9
265.7952665472593 -1 9e9 9e9
0.5 -1 9e9 9e9
0.5 -1 9e9 9e9
0.5 -1 9e9 9e9
0.5 -1 9e9 9e9
0.5 -1 9e9 9e9
0.5 -1 9e9 9e9
0.5 -1 9e9 9e9
0.5 -1 9e9 9e9
0.5 -1 9e9 9e9
0.5 -1 9e9 9e9
0.5 -1 9e9 9e9
0.5 -1 9e9 9e9
0.5 -1 9e9 9e9
0.5 -1 9e9 9e9
0.5 -1 9e9 9e9
0.5 -1 9e9 9e9
0.5 -1 9e9 9e9
0.5 -1 9e9 9e9
0.5 -1 9e9 9e9
0.5 -1 9e9 9e9
1.0 -1 9e9 9e9
1.5 -1 9e9 9e9
2.0 -1 9e9 9e9
2.5 -1 9e9 9e9
3.0 -1 9e9 9e9
3.5 -1 9e9 9e9
4.0 -1 9e9 9e9
4.5 -1 9e9 9e9
5.0 -1 9e9 9e9
5.5 -1 9e9 9e9
6.0 -1 9e9 9e9
6.5 -1 9e9 9e9
7.0 -1 9e9 9e9
7.5 -1 9e9 9e9
8.0 -1 9e9 9e9
8.5 -1 9e9 9e9
9.0 -1 9e9 9e9
9.5 -1 9e9 9e9
20
98.47045681270872 -1 9e9 9e9
98.47045681270872 -1 9e9 9e9
1257.1749088529496 -1 9e9 9e9
1280.6887225491876 -1 9e9 9e9
260.8972654208805 -1 9e9 9e9
265.7952665472593 -1 9e9 9e9
265.7952665472593 -1 9e9 9e9
265.7952665472593 -1 9e9 9e9
265.7952665472593 -1 9e9 9e9
265.7952665472593 -1 9e9 9e9
265.7952665472593 -1 9e9 9e9
265.7952665472593 -1 9e9 9e9
265.7952665472593 -1 9e9 9e9
265.7952665472593 -1 9e9 9e9
265.7952665472593 -1 9e9 9e9
265.7952665472593 -1 9e9 9e9
265.7952665472593 -1 9e9 9e9
265.7952665472593 -1 9e9 9e9
265.7952665472593 -1 9e9 9e9
265.7952665472593 -1 9e9 9e9
0.5 -1 9e9 9e9
0.5 -1 9e9 9e9
0.5 -1 9e9 9e9
0.5 -1 9e9 9e9
0.5 -1 9e9 9e9
0.5 -1 9e9 9e9
0.5 -1 9e9 9e9
0.5 -1 9e9 9e9
0.5 -1 9e9 9e9
0.5 -1 9e9 9e9
0.5 -1 9e9 9e9
0.5 -1 9e9 9e9
0.5 -1 9e9 9e9
0.5 -1 9e9 9e9
0.5 -1 9e9 9e9
0.5 -1 9e9 9e9
0.5 -1 9e9 9e9
0.5 -1 9e9 9e9
0.5 -1 9e9 9e9
0.5 -1 9e9 9e9
1.0 -1 9e9 9e9
1.5 -1 9e9 9e9
2.0 -1 9e9 9e9
2.5 -1 9e9 9e9
3.0 -1 9e9 9e9
3.5 -1 9e9 9e9
4.0 -1 9e9 9e9
4.5 -1 9e9 9e9
5.0 -1 9e9 9e9
5.5 -1 9e9 9e9
6.0 -1 9e9 9e9
6.5 -1 9e9 9e9
7.0 -1 9e9 9e9
7.5 -1 9e9 9e9
8.0 -1 9e9 9e9
8.5 -1 9e9 9e9
9.0 -1 9e9 9e9
9.5 -1 9e9 9e9
20
98.47045681270872 -1 9e9 9e9
98.47045681270872 -1 9e9 9e9
98.47045681270872 -1 9e9 9e9
98.36223370041678 -1 9e9 9e9
85.3385222900884 -1 9e9 9e9
265.7952665472593 -1 9e9 9e9
265.7952665472593 -1 9e9 9e9
265.7952665472593 -1 9e9 9e9
265.7952665472593 -1 9e9 9e9
265.7952665472593 -1 9e9 9e9
265.7952665472593 -1 9e9 9e9
265.7952665472593 -1 9e9 9e9
265.7952665472593 -1 9e9 9e9
265.7952665472593 -1 9e9 9e9
265.7952665472593 -1 9e9 9e9
265.7952665472593 -1 9e9 9e9
265.7952665472593 -1 9e9 9e9
265.7952665472593 -1 9e9 9e9
265.7952665472593 -1 9e9 9e9
265.7952665472593 -1 9e9 9e9
0.5 -1 9e9 9e9
0.5 -1 9e9 9e9
0.5 -1 9e9 9e9
0.5 -1 9e9 9e9
0.5 -1 9e9 9e9
0.5 -1 9e9 9e9
0.5 -1 9e9 9e9
0.5 -1 9e9 9e9
0.5 -1 9e9 9e9
0.5 -1 9e9 9e9
0.5 -1 9e9 9e9
0.5 -1 9e9 9e9
0.5 -1 9e9 9e9
0.5 -1 9e9 9e9
0.5 -1 9e9 9e9
0.5 -1 9e9 9e9
0.5 -1 9e9 9e9
0.5 -1 9e9 9e9
0.5 -1 9e9 9e9
0.5 -1 9e9 9e9
1.0 -1 9e9 9e9
1.5 -1 9e9 9e9
2.0 -1 9e9 9e9
2.5 -1 9e9 9e9
3.0 -1 9e9 9e9
3.5 -1 9e9 9e9
4.0 -1 9e9 9e9
4.5 -1 9e9 9e9
5.0 -1 9e9 9e9
5.5 -1 9e9 9e9
6.0 -1 9e9 9e9
6.5 -1 9e9 9e9
7.0 -1 9e9 9e9
7.5 -1 9e9 9e9
8.0 -1 9e9 9e9
8.5 -1 9e9 9e9
9.0 -1 9e9 9e9
9.5 -1 9e9 9e9
20
98.47045681270872 -1 9e9 9e9
98.47045681270872 -1 9e9 9e9
98.47045681270872 -1 9e9 9e9
97.9311391456717 -1 9e9 9e9
52.44005405857424 -1 9e9 9e9
52.79360282316725 -1 9e9 9e9
265.7952665472593 -1 9e9 9e9
265.7952665472593 -1 9e9 9e9
265.7952665472593 -1 9e9 9e9
265.7952665472593 -1 9e9 9e9
265.7952665472593 -1 9e9 9e9
265.7952665472593 -1 9e9 9e9
265.7952665472593 -1 9e9 9e9
265.7952665472593 -1 9e9 9e9
265.7952665472593 -1 9e9 9e9
265.7952665472593 -1 9e9 9e9
265.7952665472593 -1 9e9 9e9
265.7952665472593 -1 9e9 9e9
265.7952665472593 -1 9e9 9e9
265.7952665472593 -1 9e9 9e9
0.5 -1 9e9 9e9
0.5 -1 9e9 9e9
0.5 -1 9e9 9e9
0.5 -1 9e9 9e9
0.5 -1 9e9 9e9
0.5 -1 9e9 9e9
0.5 -1 9e9 9e9
0.5 -1 9e9 9e9
0.5 -1 9e9 9e9
0.5 -1 9e9 9e9
0.5 -1 9e9 9e9
0.5 -1 9e9 9e9
0.5 -1 9e9 9e9
0.5 -1 9e9 9e9
0.5 -1 9e9 9e9
0.5 -1 9e9 9e9
0.5 -1 9e9 9e9
0.5 -1 9e9 9e9
0.5 -1 9e9 9e9
0.5 -1 9e9 9e9
1.0 -1 9e9 9e9
1.5 -1 9e9 9e9
2.0 -1 9e9 9e9
2.5 -1 9e9 9e9
3.0 -1 9e9 9e9
3.5 -1 9e9 9e9
4.0 -1 9e9 9e9
4.5 -1 9e9 9e9
5.0 -1 9e9 9e9
5.5 -1 9e9 9e9
6.0 -1 9e9 9e9
6.5 -1 9e9 9e9
7.0 -1 9e9 9e9
7.5 -1 9e9 9e9
8.0 -1 9e9 9e9
8.5 -1 9e9 9e9
9.0 -1 9e9 9e9
9.5 -1 9e9 9e9
20
98.47045681270872 -1 9e9 9e9
98.47045681270872 -1 9e9 9e9
98.47045681270872 -1 9e9 9e9
97.9311391456717 -1 9e9 9e9
52.44005405857424 -1 9e9 9e9
52.44005405857424 -1 9e9 9e9
52.44005405857424 -1 9e9 9e9
54.5495087188186 -1 9e9 9e9
265.7952665472593 -1 9e9 9e9
265.7952665472593 -1 9e9 9e9
265.7952665472593 -1 9e9 9e9
265.7952665472593 -1 9e9 9e9
265.7952665472593 -1 9e9 9e9
265.7952665472593 -1 9e9 9e9
265.7952665472593 -1 9e9 9e9
265.7952665472593 -1 9e9 9e9
265.7952665472593 -1 9e9 9e9
265.7952665472593 -1 9e9 9e9
265.7952665472593 -1 9e9 9e9
265.7952665472593 -1 9e9 9e9
0.5 -1 9e9 9e9
0.5 -1 9e9 9e9
0.5 -1 9e9 9e9
0.5 -1 9e9 9e9
0.5 -1 9e9 9e9
0.5 -1 9e9 9e9
0.5 -1 9e9 9e9
0.5 -1 9e9 9e9
0.5 -1 9e9 9e9
0.5 -1 9e9 9e9
0.5 -1 9e9 9e9
0.5 -1 9e9 9e9
0.5 -1 9e9 9e9
0.5 -1 9e9 9e9
0.5 -1 9e9 9e9
0.5 -1 9e9 9e9
0.5 -1 9e9 9e9
0.5 -1 9e9 9e9
0.5 -1 9e9 9e9
0.5 -1 9e9 9e9
1.0 -1 9e9 9e9
1.5 -1 9e9 9e9
2.0 -1 9e9 9e9
2.5 -1 9e9 9e9
3.0 -1 9e9 9e9
3.5 -1 9e9 9e9
4.0 -1 9e9 9e9
4.5 -1 9e9 9e9
5.0 -1 9e9 9e9
5.5 -1 9e9 9e9
6.0 -1 9e9 9e9
6.5 -1 9e9 9e9
7.0 -1 9e9 9e9
7.5 -1 9e9 9e9
8.0 -1 9e9 9e9
8.5 -1 9e9 9e9
9.0 -1 9e9 9e9
9.5 -1 9e9 9e9
20
98.47045681270872 -1 9e9 9e9
98.47045681270872 -1 9e9 9e9
98.47045681270872 -1 9e9 9e9
97.9311391456717 -1 9e9 9e9
52.44005405857424 -1 9e9 9e9
52.44005405857424 -1 9e9 9e9
52.44005405857424 -1 9e9 9e9
52.44005405857424 -1 9e9 9e9
52.47204438469878 -1 9e9 9e9
69.76868579827394 -1 9e9 9e9
265.7952665472593 -1 9e9 9e9
265.7952665472593 -1 9e9 9e9
265.7952665472593 -1 9e9 9e9
265.7952665472593 -1 9e9 9e9
265.7952665472593 -1 9e9 9e9
265.7952665472593 -1 9e9 9e9
265.7952665472593 -1 9e9 9e9
265.7952665472593 -1 9e9 9e9
265.7952665472593 -1 9e9 9e9
265.7952665472593 -1 9e9 9e9
0.5 -1 9e9 9e9
0.5 -1 9e9 9e9
0.5 -1 9e9 9e9
0.5 -1 9e9 9e9
0.5 -1 9e9 9e9
0.5 -1 9e9 9e9
0.5 -1 9e9 9e9
0.5 -1 9e9 9e9
0.5 -1 9e9 9e9
0.5 -1 9e9 9e9
0.5 -1 9e9 9e9
0.5 -1 9e9 9e9
0.5 -1 9e9 9e9
0.5 -1 9e9 9e9
0.5 -1 9e9 9e9
0.5 -1 9e9 9e9
0.5 -1 9e9 9e9
0.5 -1 9e9 9e9
0.5 -1 9e9 9e9
0.5 -1 9e9 9e9
1.0 -1 9e9 9e9
1.5 -1 9e9 9e9
2.0 -1 9e9 9e9
2.5 -1 9e9 9e9
3.0 -1 9e9 9e9
3.5 -1 9e9 9e9
4.0 -1 9e9 9e9
4.5 -1 9e9 9e9
5.0 -1 9e9 9e9
5.5 -1 9e9 9e9
6.0 -1 9e9 9e9
6.5 -1 9e9 9e9
7.0 -1 9e9 9e9
7.5 -1 9e9 9e9
8.0 -1 9e9 9e9
8.5 -1 9e9 9e9
9.0 -1 9e9 9e9
9.5 -1 9e9 9e9
20
98.47045681270872 -1 9e9 9e9
98.47045681270872 -1 9e9 9e9
98.47045681270872 -1 9e9 9e9
97.9311391456717 -1 9e9 9e9
52.44005405857424 -1 9e9 9e9
52.44005405857424 -1 9e9 9e9
52.44005405857424 -1 9e9 9e9
52.44005405857424 -1 9e9 9e9
52.44005405857424 -1 9e9 9e9
52.44005405857424 -1 9e9 9e9
52.6003058610378 -1 9e9 9e9
257.32001312226174 -1 9e9 9e9
265.7952665472593 -1 9e9 9e9
265.7952665472593 -1 9e9 9e9
265.7952665472593 -1 9e9 9e9
265.7952665472593 -1 9e9 9e9
265.7952665472593 -1 9e9 9e9
265.7952665472593 -1 9e9 9e9
265.7952665472593 -1 9e9 9e9
265.7952665472593 -1 9e9 9e9
0.5 -1 9e9 9e9
0.5 -1 9e9 9e9
0.5 -1 9e9 9e9
0.5 -1 9e9 9e9
0.5 -1 9e9 9e9
0.5 -1 9e9 9e9
0.5 -1 9e9 9e9
0.5 -1 9e9 9e9
0.5 -1 9e9 9e9
0.5 -1 9e9 9e9
0.5 -1 9e9 9e9
0.5 -1 9e9 9e9
0.5 -1 9e9 9e9
0.5 -1 9e9 9e9
0.5 -1 9e9 9e9
0.5 -1 9e9 9e9
0.5 -1 9e9 9e9
0.5 -1 9e9 9e9
0.5 -1 9e9 9e9
0.5 -1 9e9 9e9
1.0 -1 9e9 9e9
1.5 -1 9e9 9e9
2.0 -1 9e9 9e9
2.5 -1 9e9 9e9
3.0 -1 9e9 9e9
3.5 -1 9e9 9e9
4.0 -1 9e9 9e9
4.5 -1 9e9 9e9
5.0 -1 9e9 9e9
5.5 -1 9e9 9e9
6.0 -1 9e9 9e9
6.5 -1 9e9 9e9
7.0 -1 9e9 9e9
7.5 -1 9e9 9e9
8.0 -1 9e9 9e9
8.5 -1 9e9 9e9
9.0 -1 9e9 9e9
9.5 -1 9e9 9e9
20
98.47045681270872 -1 9e9 9e9
98.47045681270872 -1 9e9 9e9
98.47045681270872 -1 9e9 9e9
97.9311391456717 -1 9e9 9e9
52.44005405857424 -1 9e9 9e9
52.44005405857424 -1 9e9 9e9
52.44005405857424 -1 9e9 9e9
52.44005405857424 -1 9e9 9e9
52.44005405857424 -1 9e9 9e9
52.44005405857424 -1 9e9 9e9
52.44005405857424 -1 9e9 9e9
52.44005405857424 -1 9e9 9e9
53.380086380842016 -1 9e9 9e9
265.7952665472593 -1 9e9 9e9
265.7952665472593 -1 9e9 9e9
265.7952665472593 -1 9e9 9e9
265.7952665472593 -1 9e9 9e9
265.7952665472593 -1 9e9 9e9
265.7952665472593 -1 9e9 9e9
265.7952665472593 -1 9e9 9e9
0.5 -1 9e9 9e9
0.5 -1 9e9 9e9
0.5 -1 9e9 9e9
0.5 -1 9e9 9e9
0.5 -1 9e9 9e9
0.5 -1 9e9 9e9
0.5 -1 9e9 9e9
0.5 -1 9e9 9e9
0.5 -1 9e9 9e9
0.5 -1 9e9 9e9
0.5 -1 9e9 9e9
0.5 -1 9e9 9e9
0.5 -1 9e9 9e9
0.5 -1 9e9 9e9
0.5 -1 9e9 9e9
0.5 -1 9e9 9e9
0.5 -1 9e9 9e9
0.5 -1 9e9 9e9
0.5 -1 9e9 9e9
0.5 -1 9e9 9e9
1.0 -1 9e9 9e9
1.5 -1 9e9 9e9
2.0 -1 9e9 9e9
2.5 -1 9e9 9e9
3.0 -1 9e9 9e9
3.5 -1 9e9 9e9
4.0 -1 9e9 9e9
4.5 -1 9e9 9e9
5.0 -1 9e9 9e9
5.5 -1 9e9 9e9
6.0 -1 9e9 9e9
6.5 -1 9e9 9e9
7.0 -1 9e9 9e9
7.5 -1 9e9 9e9
8.0 -1 9e9 9e9
8.5 -1 9e9 9e9
9.0 -1 9e9 9e9
9.5 -1 9e9 9e9
20
98.47045681270872 -1 9e9 9e9
98.47045681270872 -1 9e9 9e9
98.47045681270872 -1 9e9 9e9
97.9311391456717 -1 9e9 9e9
52.44005405857424 -1 9e9 9e9
52.44005405857424 -1 9e9 9e9
52.44005405857424 -1 9e9 9e9
52.44005405857424 -1 9e9 9e9
52.44005405857424 -1 9e9 9e9
52.44005405857424 -1 9e9 9e9
52.44005405857424 -1 9e9 9e9
52.44005405857424 -1 9e9 9e9
52.44005405857424 -1 9e9 9e9
52.44005405857424 -1 9e9 9e9
58.64469786408529 -1 9e9 9e9
265.7952665472593 -1 9e9 9e9
265.7952665472593 -1 9e9 9e9
265.7952665472593 -1 9e9 9e9
265.7952665472593 -1 9e9 9e9
265.7952665472593 -1 9e9 9e9
0.5 -1 9e9 9e9
0.5 -1 9e9 9e9
0.5 -1 9e9 9e9
0.5 -1 9e9 9e9
0.5 -1 9e9 9e9
0.5 -1 9e9 9e9
0.5 -1 9e9 9e9
0.5 -1 9e9 9e9
0.5 -1 9e9 9e9
0.5 -1 9e9 9e9
0.5 -1 9e9 9e9
0.5 -1 9e9 9e9
0.5 -1 9e9 9e9
0.5 -1 9e9 9e9
0.5 -1 9e9 9e9
0.5 -1 9e9 9e9
0.5 -1 9e9 9e9
0.5 -1 9e9 9e9
0.5 -1 9e9 9e9
0.5 -1 9e9 9e9
1.0 -1 9e9 9e9
1.5 -1 9e9 9e9
2.0 -1 9e9 9e9
2.5 -1 9e9 9e9
3.0 -1 9e9 9e9
3.5 -1 9e9 9e9
4.0 -1 9e9 9e9
4.5 -1 9e9 9e9
5.0 -1 9e9 9e9
5.5 -1 9e9 9e9
6.0 -1 9e9 9e9
6.5 -1 9e9 9e9
7.0 -1 9e9 9e9
7.5 -1 9e9 9e9
8.0 -1 9e9 9e9
8.5 -1 9e9 9e9
9.0 -1 9e9 9e9
9.5 -1 9e9 9e9
20
98.47045681270872 -1 9e9 9e9
98.47045681270872 -1 9e9 9e9
98.47045681270872 -1 9e9 9e9
97.9311391456717 -1 9e9 9e9
52.44005405857424 -1 9e9 9e9
52.44005405857424 -1 9e9 9e9
52.44005405857424 -1 9e9 9e9
52.44005405857424 -1 9e9 9e9
52.44005405857424 -1 9e9 9e9
52.44005405857424 -1 9e9 9e9
52.40809367306202 -1 9e9 9e9
52.44005405857424 -1 9e9 9e9
52.40809367306202 -1 9e9 9e9
52.44005405857424 -1 9e9 9e9
52.40809367306202 -1 9e9 9e9
52.50406468967475 -1 9e9 9e9
143.5790559872053 -1 9e9 9e9
265.7952665472593 -1 9e9 9e9
265.7952665472593 -1 9e9 9e9
265.7952665472593 -1 9e9 9e9
0.5 -1 9e9 9e9
0.5 -1 9e9 9e9
0.5 -1 9e9 9e9
0.5 -1 9e9 9e9
0.5 -1 9e9 9e9
0.5 -1 9e9 9e9
0.5 -1 9e9 9e9
0.5 -1 9e9 9e9
0.5 -1 9e9 9e9
0.5 -1 9e9 9e9
0.5 -1 9e9 9e9
0.5 -1 9e9 9e9
0.5 -1 9e9 9e9
0.5 -1 9e9 9e9
0.5 -1 9e9 9e9
0.5 -1 9e9 9e9
0.5 -1 9e9 9e9
0.5 -1 9e9 9e9
0.5 -1 9e9 9e9
0.5 -1 9e9 9e9
1.0 -1 9e9 9e9
1.5 -1 9e9 9e9
2.0 -1 9e9 9e9
2.5 -1 9e9 9e9
3.0 -1 9e9 9e9
3.5 -1 9e9 9e9
4.0 -1 9e9 9e9
4.5 -1 9e9 9e9
5.0 -1 9e9 9e9
5.5 -1 9e9 9e9
6.0 -1 9e9 9e9
6.5 -1 9e9 9e9
7.0 -1 9e9 9e9
7.5 -1 9e9 9e9
8.0 -1 9e9 9e9
8.5 -1 9e9 9e9
9.0 -1 9e9 9e9
9.5 -1 9e9 9e9
20
98.47045681270872 -1 9e9 9e9
98.47045681270872 -1 9e9 9e9
98.47045681270872 -1 9e9 9e9
97.9311391456717 -1 9e9 9e9
52.44005405857424 -1 9e9 9e9
52.44005405857424 -1 9e9 9e9
52.44005405857424 -1 9e9 9e9
52.44005405857424 -1 9e9 9e9
52.40809367306202 -1 9e9 9e9
52.44005405857424 -1 9e9 9e9
52.40809367306202 -1 9e9 9e9
52.44005405857424 -1 9e9 9e9
52.40809367306202 -1 9e9 9e9
52.44005405857424 -1 9e9 9e9
52.40809367306202 -1 9e9 9e9
52.44005405857424 -1 9e9 9e9
52.40809367306202 -1 9e9 9e9
52.85827764760914 -1 9e9 9e9
265.7952665472593 -1 9e9 9e9
265.7952665472593 -1 9e9 9e9
0.5 -1 9e9 9e9
0.5 -1 9e9 9e9
0.5 -1 9e9 9e9
0.5 -1 9e9 9e9
0.5 -1 9e9 9e9
0.5 -1 9e9 9e9
0.5 -1 9e9 9e9
0.5 -1 9e9 9e9
0.5 -1 9e9 9e9
0.5 -1 9e9 9e9
0.5 -1 9e9 9e9
0.5 -1 9e9 9e9
0.5 -1 9e9 9e9
0.5 -1 9e9 9e9
0.5 -1 9e9 9e9
0.5 -1 9e9 9e9
0.5 -1 9e9 9e9
0.5 -1 9e9 9e9
0.5 -1 9e9 9e9
0.5 -1 9e9 9e9
1.0 -1 9e9 9e9
1.5 -1 9e9 9e9
2.0 -1 9e9 9e9
2.5 -1 9e9 9e9
3.0 -1 9e9 9e9
3.5 -1 9e9 9e9
4.0 -1 9e9 9e9
4.5 -1 9e9 9e9
5.0 -1 9e9 9e9
5.5 -1 9e9 9e9
6.0 -1 9e9 9e9
6.5 -1 9e9 9e9
7.0 -1 9e9 9e9
7.5 -1 9e9 9e9
8.0 -1 9e9 9e9
8.5 -1 9e9 9e9
9.0 -1 9e9 9e9
9.5 -1 9e9 9e9
