modfile generated in Python
11 0
1 1 Hydrus_ERT00001.dcp
2 1 Hydrus_ERT00002.dcp
3 1 Hydrus_ERT00003.dcp
4 1 Hydrus_ERT00004.dcp
5 1 Hydrus_ERT00005.dcp
6 1 Hydrus_ERT00006.dcp
7 1 Hydrus_ERT00007.dcp
8 1 Hydrus_ERT00008.dcp
9 1 Hydrus_ERT00009.dcp
10 1 Hydrus_ERT00010.dcp
11 1 Hydrus_ERT00011.dcp
100
20
100 -1 9e9 9e9
100 -1 9e9 9e9
100 -1 9e9 9e9
100 -1 9e9 9e9
100 -1 9e9 9e9
100 -1 9e9 9e9
100 -1 9e9 9e9
100 -1 9e9 9e9
100 -1 9e9 9e9
100 -1 9e9 9e9
100 -1 9e9 9e9
100 -1 9e9 9e9
100 -1 9e9 9e9
100 -1 9e9 9e9
100 -1 9e9 9e9
100 -1 9e9 9e9
100 -1 9e9 9e9
100 -1 9e9 9e9
100 -1 9e9 9e9
100 -1 9e9 9e9
0.5 1.e-3 9e9 9e9
0.5 1.e-3 9e9 9e9
0.5 1.e-3 9e9 9e9
0.5 1.e-3 9e9 9e9
0.5 1.e-3 9e9 9e9
0.5 1.e-3 9e9 9e9
0.5 1.e-3 9e9 9e9
0.5 1.e-3 9e9 9e9
0.5 1.e-3 9e9 9e9
0.5 1.e-3 9e9 9e9
0.5 1.e-3 9e9 9e9
0.5 1.e-3 9e9 9e9
0.5 1.e-3 9e9 9e9
0.5 1.e-3 9e9 9e9
0.5 1.e-3 9e9 9e9
0.5 1.e-3 9e9 9e9
0.5 1.e-3 9e9 9e9
0.5 1.e-3 9e9 9e9
0.5 1.e-3 9e9 9e9
0.5 1.e-3 9e9 9e9
1.0 -1 9e9 9e9
1.5 -1 9e9 9e9
2.0 -1 9e9 9e9
2.5 -1 9e9 9e9
3.0 -1 9e9 9e9
3.5 -1 9e9 9e9
4.0 -1 9e9 9e9
4.5 -1 9e9 9e9
5.0 -1 9e9 9e9
5.5 -1 9e9 9e9
6.0 -1 9e9 9e9
6.5 -1 9e9 9e9
7.0 -1 9e9 9e9
7.5 -1 9e9 9e9
8.0 -1 9e9 9e9
8.5 -1 9e9 9e9
9.0 -1 9e9 9e9
9.5 -1 9e9 9e9
20
100 -1 9e9 9e9
100 -1 9e9 9e9
100 -1 9e9 9e9
100 -1 9e9 9e9
100 -1 9e9 9e9
100 -1 9e9 9e9
100 -1 9e9 9e9
100 -1 9e9 9e9
100 -1 9e9 9e9
100 -1 9e9 9e9
100 -1 9e9 9e9
100 -1 9e9 9e9
100 -1 9e9 9e9
100 -1 9e9 9e9
100 -1 9e9 9e9
100 -1 9e9 9e9
100 -1 9e9 9e9
100 -1 9e9 9e9
100 -1 9e9 9e9
100 -1 9e9 9e9
0.5 1.e-3 9e9 9e9
0.5 1.e-3 9e9 9e9
0.5 1.e-3 9e9 9e9
0.5 1.e-3 9e9 9e9
0.5 1.e-3 9e9 9e9
0.5 1.e-3 9e9 9e9
0.5 1.e-3 9e9 9e9
0.5 1.e-3 9e9 9e9
0.5 1.e-3 9e9 9e9
0.5 1.e-3 9e9 9e9
0.5 1.e-3 9e9 9e9
0.5 1.e-3 9e9 9e9
0.5 1.e-3 9e9 9e9
0.5 1.e-3 9e9 9e9
0.5 1.e-3 9e9 9e9
0.5 1.e-3 9e9 9e9
0.5 1.e-3 9e9 9e9
0.5 1.e-3 9e9 9e9
0.5 1.e-3 9e9 9e9
0.5 1.e-3 9e9 9e9
1.0 -1 9e9 9e9
1.5 -1 9e9 9e9
2.0 -1 9e9 9e9
2.5 -1 9e9 9e9
3.0 -1 9e9 9e9
3.5 -1 9e9 9e9
4.0 -1 9e9 9e9
4.5 -1 9e9 9e9
5.0 -1 9e9 9e9
5.5 -1 9e9 9e9
6.0 -1 9e9 9e9
6.5 -1 9e9 9e9
7.0 -1 9e9 9e9
7.5 -1 9e9 9e9
8.0 -1 9e9 9e9
8.5 -1 9e9 9e9
9.0 -1 9e9 9e9
9.5 -1 9e9 9e9
20
100 -1 9e9 9e9
100 -1 9e9 9e9
100 -1 9e9 9e9
100 -1 9e9 9e9
100 -1 9e9 9e9
100 -1 9e9 9e9
100 -1 9e9 9e9
100 -1 9e9 9e9
100 -1 9e9 9e9
100 -1 9e9 9e9
100 -1 9e9 9e9
100 -1 9e9 9e9
100 -1 9e9 9e9
100 -1 9e9 9e9
100 -1 9e9 9e9
100 -1 9e9 9e9
100 -1 9e9 9e9
100 -1 9e9 9e9
100 -1 9e9 9e9
100 -1 9e9 9e9
0.5 1.e-3 9e9 9e9
0.5 1.e-3 9e9 9e9
0.5 1.e-3 9e9 9e9
0.5 1.e-3 9e9 9e9
0.5 1.e-3 9e9 9e9
0.5 1.e-3 9e9 9e9
0.5 1.e-3 9e9 9e9
0.5 1.e-3 9e9 9e9
0.5 1.e-3 9e9 9e9
0.5 1.e-3 9e9 9e9
0.5 1.e-3 9e9 9e9
0.5 1.e-3 9e9 9e9
0.5 1.e-3 9e9 9e9
0.5 1.e-3 9e9 9e9
0.5 1.e-3 9e9 9e9
0.5 1.e-3 9e9 9e9
0.5 1.e-3 9e9 9e9
0.5 1.e-3 9e9 9e9
0.5 1.e-3 9e9 9e9
0.5 1.e-3 9e9 9e9
1.0 -1 9e9 9e9
1.5 -1 9e9 9e9
2.0 -1 9e9 9e9
2.5 -1 9e9 9e9
3.0 -1 9e9 9e9
3.5 -1 9e9 9e9
4.0 -1 9e9 9e9
4.5 -1 9e9 9e9
5.0 -1 9e9 9e9
5.5 -1 9e9 9e9
6.0 -1 9e9 9e9
6.5 -1 9e9 9e9
7.0 -1 9e9 9e9
7.5 -1 9e9 9e9
8.0 -1 9e9 9e9
8.5 -1 9e9 9e9
9.0 -1 9e9 9e9
9.5 -1 9e9 9e9
20
100 -1 9e9 9e9
100 -1 9e9 9e9
100 -1 9e9 9e9
100 -1 9e9 9e9
100 -1 9e9 9e9
100 -1 9e9 9e9
100 -1 9e9 9e9
100 -1 9e9 9e9
100 -1 9e9 9e9
100 -1 9e9 9e9
100 -1 9e9 9e9
100 -1 9e9 9e9
100 -1 9e9 9e9
100 -1 9e9 9e9
100 -1 9e9 9e9
100 -1 9e9 9e9
100 -1 9e9 9e9
100 -1 9e9 9e9
100 -1 9e9 9e9
100 -1 9e9 9e9
0.5 1.e-3 9e9 9e9
0.5 1.e-3 9e9 9e9
0.5 1.e-3 9e9 9e9
0.5 1.e-3 9e9 9e9
0.5 1.e-3 9e9 9e9
0.5 1.e-3 9e9 9e9
0.5 1.e-3 9e9 9e9
0.5 1.e-3 9e9 9e9
0.5 1.e-3 9e9 9e9
0.5 1.e-3 9e9 9e9
0.5 1.e-3 9e9 9e9
0.5 1.e-3 9e9 9e9
0.5 1.e-3 9e9 9e9
0.5 1.e-3 9e9 9e9
0.5 1.e-3 9e9 9e9
0.5 1.e-3 9e9 9e9
0.5 1.e-3 9e9 9e9
0.5 1.e-3 9e9 9e9
0.5 1.e-3 9e9 9e9
0.5 1.e-3 9e9 9e9
1.0 -1 9e9 9e9
1.5 -1 9e9 9e9
2.0 -1 9e9 9e9
2.5 -1 9e9 9e9
3.0 -1 9e9 9e9
3.5 -1 9e9 9e9
4.0 -1 9e9 9e9
4.5 -1 9e9 9e9
5.0 -1 9e9 9e9
5.5 -1 9e9 9e9
6.0 -1 9e9 9e9
6.5 -1 9e9 9e9
7.0 -1 9e9 9e9
7.5 -1 9e9 9e9
8.0 -1 9e9 9e9
8.5 -1 9e9 9e9
9.0 -1 9e9 9e9
9.5 -1 9e9 9e9
20
100 -1 9e9 9e9
100 -1 9e9 9e9
100 -1 9e9 9e9
100 -1 9e9 9e9
100 -1 9e9 9e9
100 -1 9e9 9e9
100 -1 9e9 9e9
100 -1 9e9 9e9
100 -1 9e9 9e9
100 -1 9e9 9e9
100 -1 9e9 9e9
100 -1 9e9 9e9
100 -1 9e9 9e9
100 -1 9e9 9e9
100 -1 9e9 9e9
100 -1 9e9 9e9
100 -1 9e9 9e9
100 -1 9e9 9e9
100 -1 9e9 9e9
100 -1 9e9 9e9
0.5 1.e-3 9e9 9e9
0.5 1.e-3 9e9 9e9
0.5 1.e-3 9e9 9e9
0.5 1.e-3 9e9 9e9
0.5 1.e-3 9e9 9e9
0.5 1.e-3 9e9 9e9
0.5 1.e-3 9e9 9e9
0.5 1.e-3 9e9 9e9
0.5 1.e-3 9e9 9e9
0.5 1.e-3 9e9 9e9
0.5 1.e-3 9e9 9e9
0.5 1.e-3 9e9 9e9
0.5 1.e-3 9e9 9e9
0.5 1.e-3 9e9 9e9
0.5 1.e-3 9e9 9e9
0.5 1.e-3 9e9 9e9
0.5 1.e-3 9e9 9e9
0.5 1.e-3 9e9 9e9
0.5 1.e-3 9e9 9e9
0.5 1.e-3 9e9 9e9
1.0 -1 9e9 9e9
1.5 -1 9e9 9e9
2.0 -1 9e9 9e9
2.5 -1 9e9 9e9
3.0 -1 9e9 9e9
3.5 -1 9e9 9e9
4.0 -1 9e9 9e9
4.5 -1 9e9 9e9
5.0 -1 9e9 9e9
5.5 -1 9e9 9e9
6.0 -1 9e9 9e9
6.5 -1 9e9 9e9
7.0 -1 9e9 9e9
7.5 -1 9e9 9e9
8.0 -1 9e9 9e9
8.5 -1 9e9 9e9
9.0 -1 9e9 9e9
9.5 -1 9e9 9e9
20
100 -1 9e9 9e9
100 -1 9e9 9e9
100 -1 9e9 9e9
100 -1 9e9 9e9
100 -1 9e9 9e9
100 -1 9e9 9e9
100 -1 9e9 9e9
100 -1 9e9 9e9
100 -1 9e9 9e9
100 -1 9e9 9e9
100 -1 9e9 9e9
100 -1 9e9 9e9
100 -1 9e9 9e9
100 -1 9e9 9e9
100 -1 9e9 9e9
100 -1 9e9 9e9
100 -1 9e9 9e9
100 -1 9e9 9e9
100 -1 9e9 9e9
100 -1 9e9 9e9
0.5 1.e-3 9e9 9e9
0.5 1.e-3 9e9 9e9
0.5 1.e-3 9e9 9e9
0.5 1.e-3 9e9 9e9
0.5 1.e-3 9e9 9e9
0.5 1.e-3 9e9 9e9
0.5 1.e-3 9e9 9e9
0.5 1.e-3 9e9 9e9
0.5 1.e-3 9e9 9e9
0.5 1.e-3 9e9 9e9
0.5 1.e-3 9e9 9e9
0.5 1.e-3 9e9 9e9
0.5 1.e-3 9e9 9e9
0.5 1.e-3 9e9 9e9
0.5 1.e-3 9e9 9e9
0.5 1.e-3 9e9 9e9
0.5 1.e-3 9e9 9e9
0.5 1.e-3 9e9 9e9
0.5 1.e-3 9e9 9e9
0.5 1.e-3 9e9 9e9
1.0 -1 9e9 9e9
1.5 -1 9e9 9e9
2.0 -1 9e9 9e9
2.5 -1 9e9 9e9
3.0 -1 9e9 9e9
3.5 -1 9e9 9e9
4.0 -1 9e9 9e9
4.5 -1 9e9 9e9
5.0 -1 9e9 9e9
5.5 -1 9e9 9e9
6.0 -1 9e9 9e9
6.5 -1 9e9 9e9
7.0 -1 9e9 9e9
7.5 -1 9e9 9e9
8.0 -1 9e9 9e9
8.5 -1 9e9 9e9
9.0 -1 9e9 9e9
9.5 -1 9e9 9e9
20
100 -1 9e9 9e9
100 -1 9e9 9e9
100 -1 9e9 9e9
100 -1 9e9 9e9
100 -1 9e9 9e9
100 -1 9e9 9e9
100 -1 9e9 9e9
100 -1 9e9 9e9
100 -1 9e9 9e9
100 -1 9e9 9e9
100 -1 9e9 9e9
100 -1 9e9 9e9
100 -1 9e9 9e9
100 -1 9e9 9e9
100 -1 9e9 9e9
100 -1 9e9 9e9
100 -1 9e9 9e9
100 -1 9e9 9e9
100 -1 9e9 9e9
100 -1 9e9 9e9
0.5 1.e-3 9e9 9e9
0.5 1.e-3 9e9 9e9
0.5 1.e-3 9e9 9e9
0.5 1.e-3 9e9 9e9
0.5 1.e-3 9e9 9e9
0.5 1.e-3 9e9 9e9
0.5 1.e-3 9e9 9e9
0.5 1.e-3 9e9 9e9
0.5 1.e-3 9e9 9e9
0.5 1.e-3 9e9 9e9
0.5 1.e-3 9e9 9e9
0.5 1.e-3 9e9 9e9
0.5 1.e-3 9e9 9e9
0.5 1.e-3 9e9 9e9
0.5 1.e-3 9e9 9e9
0.5 1.e-3 9e9 9e9
0.5 1.e-3 9e9 9e9
0.5 1.e-3 9e9 9e9
0.5 1.e-3 9e9 9e9
0.5 1.e-3 9e9 9e9
1.0 -1 9e9 9e9
1.5 -1 9e9 9e9
2.0 -1 9e9 9e9
2.5 -1 9e9 9e9
3.0 -1 9e9 9e9
3.5 -1 9e9 9e9
4.0 -1 9e9 9e9
4.5 -1 9e9 9e9
5.0 -1 9e9 9e9
5.5 -1 9e9 9e9
6.0 -1 9e9 9e9
6.5 -1 9e9 9e9
7.0 -1 9e9 9e9
7.5 -1 9e9 9e9
8.0 -1 9e9 9e9
8.5 -1 9e9 9e9
9.0 -1 9e9 9e9
9.5 -1 9e9 9e9
20
100 -1 9e9 9e9
100 -1 9e9 9e9
100 -1 9e9 9e9
100 -1 9e9 9e9
100 -1 9e9 9e9
100 -1 9e9 9e9
100 -1 9e9 9e9
100 -1 9e9 9e9
100 -1 9e9 9e9
100 -1 9e9 9e9
100 -1 9e9 9e9
100 -1 9e9 9e9
100 -1 9e9 9e9
100 -1 9e9 9e9
100 -1 9e9 9e9
100 -1 9e9 9e9
100 -1 9e9 9e9
100 -1 9e9 9e9
100 -1 9e9 9e9
100 -1 9e9 9e9
0.5 1.e-3 9e9 9e9
0.5 1.e-3 9e9 9e9
0.5 1.e-3 9e9 9e9
0.5 1.e-3 9e9 9e9
0.5 1.e-3 9e9 9e9
0.5 1.e-3 9e9 9e9
0.5 1.e-3 9e9 9e9
0.5 1.e-3 9e9 9e9
0.5 1.e-3 9e9 9e9
0.5 1.e-3 9e9 9e9
0.5 1.e-3 9e9 9e9
0.5 1.e-3 9e9 9e9
0.5 1.e-3 9e9 9e9
0.5 1.e-3 9e9 9e9
0.5 1.e-3 9e9 9e9
0.5 1.e-3 9e9 9e9
0.5 1.e-3 9e9 9e9
0.5 1.e-3 9e9 9e9
0.5 1.e-3 9e9 9e9
0.5 1.e-3 9e9 9e9
1.0 -1 9e9 9e9
1.5 -1 9e9 9e9
2.0 -1 9e9 9e9
2.5 -1 9e9 9e9
3.0 -1 9e9 9e9
3.5 -1 9e9 9e9
4.0 -1 9e9 9e9
4.5 -1 9e9 9e9
5.0 -1 9e9 9e9
5.5 -1 9e9 9e9
6.0 -1 9e9 9e9
6.5 -1 9e9 9e9
7.0 -1 9e9 9e9
7.5 -1 9e9 9e9
8.0 -1 9e9 9e9
8.5 -1 9e9 9e9
9.0 -1 9e9 9e9
9.5 -1 9e9 9e9
20
100 -1 9e9 9e9
100 -1 9e9 9e9
100 -1 9e9 9e9
100 -1 9e9 9e9
100 -1 9e9 9e9
100 -1 9e9 9e9
100 -1 9e9 9e9
100 -1 9e9 9e9
100 -1 9e9 9e9
100 -1 9e9 9e9
100 -1 9e9 9e9
100 -1 9e9 9e9
100 -1 9e9 9e9
100 -1 9e9 9e9
100 -1 9e9 9e9
100 -1 9e9 9e9
100 -1 9e9 9e9
100 -1 9e9 9e9
100 -1 9e9 9e9
100 -1 9e9 9e9
0.5 1.e-3 9e9 9e9
0.5 1.e-3 9e9 9e9
0.5 1.e-3 9e9 9e9
0.5 1.e-3 9e9 9e9
0.5 1.e-3 9e9 9e9
0.5 1.e-3 9e9 9e9
0.5 1.e-3 9e9 9e9
0.5 1.e-3 9e9 9e9
0.5 1.e-3 9e9 9e9
0.5 1.e-3 9e9 9e9
0.5 1.e-3 9e9 9e9
0.5 1.e-3 9e9 9e9
0.5 1.e-3 9e9 9e9
0.5 1.e-3 9e9 9e9
0.5 1.e-3 9e9 9e9
0.5 1.e-3 9e9 9e9
0.5 1.e-3 9e9 9e9
0.5 1.e-3 9e9 9e9
0.5 1.e-3 9e9 9e9
0.5 1.e-3 9e9 9e9
1.0 -1 9e9 9e9
1.5 -1 9e9 9e9
2.0 -1 9e9 9e9
2.5 -1 9e9 9e9
3.0 -1 9e9 9e9
3.5 -1 9e9 9e9
4.0 -1 9e9 9e9
4.5 -1 9e9 9e9
5.0 -1 9e9 9e9
5.5 -1 9e9 9e9
6.0 -1 9e9 9e9
6.5 -1 9e9 9e9
7.0 -1 9e9 9e9
7.5 -1 9e9 9e9
8.0 -1 9e9 9e9
8.5 -1 9e9 9e9
9.0 -1 9e9 9e9
9.5 -1 9e9 9e9
20
100 -1 9e9 9e9
100 -1 9e9 9e9
100 -1 9e9 9e9
100 -1 9e9 9e9
100 -1 9e9 9e9
100 -1 9e9 9e9
100 -1 9e9 9e9
100 -1 9e9 9e9
100 -1 9e9 9e9
100 -1 9e9 9e9
100 -1 9e9 9e9
100 -1 9e9 9e9
100 -1 9e9 9e9
100 -1 9e9 9e9
100 -1 9e9 9e9
100 -1 9e9 9e9
100 -1 9e9 9e9
100 -1 9e9 9e9
100 -1 9e9 9e9
100 -1 9e9 9e9
0.5 1.e-3 9e9 9e9
0.5 1.e-3 9e9 9e9
0.5 1.e-3 9e9 9e9
0.5 1.e-3 9e9 9e9
0.5 1.e-3 9e9 9e9
0.5 1.e-3 9e9 9e9
0.5 1.e-3 9e9 9e9
0.5 1.e-3 9e9 9e9
0.5 1.e-3 9e9 9e9
0.5 1.e-3 9e9 9e9
0.5 1.e-3 9e9 9e9
0.5 1.e-3 9e9 9e9
0.5 1.e-3 9e9 9e9
0.5 1.e-3 9e9 9e9
0.5 1.e-3 9e9 9e9
0.5 1.e-3 9e9 9e9
0.5 1.e-3 9e9 9e9
0.5 1.e-3 9e9 9e9
0.5 1.e-3 9e9 9e9
0.5 1.e-3 9e9 9e9
1.0 -1 9e9 9e9
1.5 -1 9e9 9e9
2.0 -1 9e9 9e9
2.5 -1 9e9 9e9
3.0 -1 9e9 9e9
3.5 -1 9e9 9e9
4.0 -1 9e9 9e9
4.5 -1 9e9 9e9
5.0 -1 9e9 9e9
5.5 -1 9e9 9e9
6.0 -1 9e9 9e9
6.5 -1 9e9 9e9
7.0 -1 9e9 9e9
7.5 -1 9e9 9e9
8.0 -1 9e9 9e9
8.5 -1 9e9 9e9
9.0 -1 9e9 9e9
9.5 -1 9e9 9e9
20
100 -1 9e9 9e9
100 -1 9e9 9e9
100 -1 9e9 9e9
100 -1 9e9 9e9
100 -1 9e9 9e9
100 -1 9e9 9e9
100 -1 9e9 9e9
100 -1 9e9 9e9
100 -1 9e9 9e9
100 -1 9e9 9e9
100 -1 9e9 9e9
100 -1 9e9 9e9
100 -1 9e9 9e9
100 -1 9e9 9e9
100 -1 9e9 9e9
100 -1 9e9 9e9
100 -1 9e9 9e9
100 -1 9e9 9e9
100 -1 9e9 9e9
100 -1 9e9 9e9
0.5 1.e-3 9e9 9e9
0.5 1.e-3 9e9 9e9
0.5 1.e-3 9e9 9e9
0.5 1.e-3 9e9 9e9
0.5 1.e-3 9e9 9e9
0.5 1.e-3 9e9 9e9
0.5 1.e-3 9e9 9e9
0.5 1.e-3 9e9 9e9
0.5 1.e-3 9e9 9e9
0.5 1.e-3 9e9 9e9
0.5 1.e-3 9e9 9e9
0.5 1.e-3 9e9 9e9
0.5 1.e-3 9e9 9e9
0.5 1.e-3 9e9 9e9
0.5 1.e-3 9e9 9e9
0.5 1.e-3 9e9 9e9
0.5 1.e-3 9e9 9e9
0.5 1.e-3 9e9 9e9
0.5 1.e-3 9e9 9e9
0.5 1.e-3 9e9 9e9
1.0 -1 9e9 9e9
1.5 -1 9e9 9e9
2.0 -1 9e9 9e9
2.5 -1 9e9 9e9
3.0 -1 9e9 9e9
3.5 -1 9e9 9e9
4.0 -1 9e9 9e9
4.5 -1 9e9 9e9
5.0 -1 9e9 9e9
5.5 -1 9e9 9e9
6.0 -1 9e9 9e9
6.5 -1 9e9 9e9
7.0 -1 9e9 9e9
7.5 -1 9e9 9e9
8.0 -1 9e9 9e9
8.5 -1 9e9 9e9
9.0 -1 9e9 9e9
9.5 -1 9e9 9e9
