# vtk DataFile Version 3.0
Output from R3t
ASCII
DATASET POLYDATA
POINTS      96 double
      0.32500000E+01      0.00000000E+00      0.45350000E+02
      0.28150000E+01      0.16250000E+01      0.45350000E+02
      0.16250000E+01      0.28150000E+01      0.45350000E+02
      0.00000000E+00      0.32500000E+01      0.45350000E+02
     -0.16250000E+01      0.28150000E+01      0.45350000E+02
     -0.28150000E+01      0.16250000E+01      0.45350000E+02
     -0.32500000E+01      0.00000000E+00      0.45350000E+02
     -0.28150000E+01     -0.16250000E+01      0.45350000E+02
     -0.16250000E+01     -0.28150000E+01      0.45350000E+02
      0.00000000E+00     -0.32500000E+01      0.45350000E+02
      0.16250000E+01     -0.28150000E+01      0.45350000E+02
      0.28150000E+01     -0.16250000E+01      0.45350000E+02
      0.32500000E+01      0.00000000E+00      0.39800000E+02
      0.28150000E+01      0.16250000E+01      0.39800000E+02
      0.16250000E+01      0.28150000E+01      0.39800000E+02
      0.00000000E+00      0.32500000E+01      0.39800000E+02
     -0.16250000E+01      0.28150000E+01      0.39800000E+02
     -0.28150000E+01      0.16250000E+01      0.39800000E+02
     -0.32500000E+01      0.00000000E+00      0.39800000E+02
     -0.28150000E+01     -0.16250000E+01      0.39800000E+02
     -0.16250000E+01     -0.28150000E+01      0.39800000E+02
      0.00000000E+00     -0.32500000E+01      0.39800000E+02
      0.16250000E+01     -0.28150000E+01      0.39800000E+02
      0.28150000E+01     -0.16250000E+01      0.39800000E+02
      0.32500000E+01      0.00000000E+00      0.34250000E+02
      0.28150000E+01      0.16250000E+01      0.34250000E+02
      0.16250000E+01      0.28150000E+01      0.34250000E+02
      0.00000000E+00      0.32500000E+01      0.34250000E+02
     -0.16250000E+01      0.28150000E+01      0.34250000E+02
     -0.28150000E+01      0.16250000E+01      0.34250000E+02
     -0.32500000E+01      0.00000000E+00      0.34250000E+02
     -0.28150000E+01     -0.16250000E+01      0.34250000E+02
     -0.16250000E+01     -0.28150000E+01      0.34250000E+02
      0.00000000E+00     -0.32500000E+01      0.34250000E+02
      0.16250000E+01     -0.28150000E+01      0.34250000E+02
      0.28150000E+01     -0.16250000E+01      0.34250000E+02
      0.32500000E+01      0.00000000E+00      0.28700000E+02
      0.28150000E+01      0.16250000E+01      0.28700000E+02
      0.16250000E+01      0.28150000E+01      0.28700000E+02
      0.00000000E+00      0.32500000E+01      0.28700000E+02
     -0.16250000E+01      0.28150000E+01      0.28700000E+02
     -0.28150000E+01      0.16250000E+01      0.28700000E+02
     -0.32500000E+01      0.00000000E+00      0.28700000E+02
     -0.28150000E+01     -0.16250000E+01      0.28700000E+02
     -0.16250000E+01     -0.28150000E+01      0.28700000E+02
      0.00000000E+00     -0.32500000E+01      0.28700000E+02
      0.16250000E+01     -0.28150000E+01      0.28700000E+02
      0.28150000E+01     -0.16250000E+01      0.28700000E+02
      0.32500000E+01      0.00000000E+00      0.23150000E+02
      0.28150000E+01      0.16250000E+01      0.23150000E+02
      0.16250000E+01      0.28150000E+01      0.23150000E+02
      0.00000000E+00      0.32500000E+01      0.23150000E+02
     -0.16250000E+01      0.28150000E+01      0.23150000E+02
     -0.28150000E+01      0.16250000E+01      0.23150000E+02
     -0.32500000E+01      0.00000000E+00      0.23150000E+02
     -0.28150000E+01     -0.16250000E+01      0.23150000E+02
     -0.16250000E+01     -0.28150000E+01      0.23150000E+02
      0.00000000E+00     -0.32500000E+01      0.23150000E+02
      0.16250000E+01     -0.28150000E+01      0.23150000E+02
      0.28150000E+01     -0.16250000E+01      0.23150000E+02
      0.32500000E+01      0.00000000E+00      0.17600000E+02
      0.28150000E+01      0.16250000E+01      0.17600000E+02
      0.16250000E+01      0.28150000E+01      0.17600000E+02
      0.00000000E+00      0.32500000E+01      0.17600000E+02
     -0.16250000E+01      0.28150000E+01      0.17600000E+02
     -0.28150000E+01      0.16250000E+01      0.17600000E+02
     -0.32500000E+01      0.00000000E+00      0.17600000E+02
     -0.28150000E+01     -0.16250000E+01      0.17600000E+02
     -0.16250000E+01     -0.28150000E+01      0.17600000E+02
      0.00000000E+00     -0.32500000E+01      0.17600000E+02
      0.16250000E+01     -0.28150000E+01      0.17600000E+02
      0.28150000E+01     -0.16250000E+01      0.17600000E+02
      0.32500000E+01      0.00000000E+00      0.12050000E+02
      0.28150000E+01      0.16250000E+01      0.12050000E+02
      0.16250000E+01      0.28150000E+01      0.12050000E+02
      0.00000000E+00      0.32500000E+01      0.12050000E+02
     -0.16250000E+01      0.28150000E+01      0.12050000E+02
     -0.28150000E+01      0.16250000E+01      0.12050000E+02
     -0.32500000E+01      0.00000000E+00      0.12050000E+02
     -0.28150000E+01     -0.16250000E+01      0.12050000E+02
     -0.16250000E+01     -0.28150000E+01      0.12050000E+02
      0.00000000E+00     -0.32500000E+01      0.12050000E+02
      0.16250000E+01     -0.28150000E+01      0.12050000E+02
      0.28150000E+01     -0.16250000E+01      0.12050000E+02
      0.32500000E+01      0.00000000E+00      0.65000000E+01
      0.28150000E+01      0.16250000E+01      0.65000000E+01
      0.16250000E+01      0.28150000E+01      0.65000000E+01
      0.00000000E+00      0.32500000E+01      0.65000000E+01
     -0.16250000E+01      0.28150000E+01      0.65000000E+01
     -0.28150000E+01      0.16250000E+01      0.65000000E+01
     -0.32500000E+01      0.00000000E+00      0.65000000E+01
     -0.28150000E+01     -0.16250000E+01      0.65000000E+01
     -0.16250000E+01     -0.28150000E+01      0.65000000E+01
      0.00000000E+00     -0.32500000E+01      0.65000000E+01
      0.16250000E+01     -0.28150000E+01      0.65000000E+01
      0.28150000E+01     -0.16250000E+01      0.65000000E+01
